Building DAG of jobs...
MissingInputException in line 1 of /Users/charlotteseehagen/Documents/Uni/swp-workflows/workflow/rules/bowtie.smk:
Missing input files for rule map:
    output: results/sam/ERR024605_tiny.sam
    wildcards: sample=ERR024605_tiny
    affected files:
        results/fastq/ERR024605_tiny_2.fastq.gz
        results/fastq/ERR024605_tiny_1.fastq.gz
